…
scale_colour_discrete = scale_colour_viridis_d
scale_fill_discrete = scale_fill_viridis_d
```

# Problem 1

## Load the instacart data.

``` r
data("instacart")
instacart
```

    ## # A tibble: 1,384,617 × 15
    ##    order_id product_id add_to_cart_order reordered user_id eval_set order_number
    ##       <int>      <int>             <int>     <int>   <int> <chr>           <int>
    ##  1        1      49302                 1         1  112108 train               4
    ##  2        1      11109                 2         1  112108 train               4
    ##  3        1      10246                 3         0  112108 train               4
    ##  4        1      49683                 4         0  112108 train               4
    ##  5        1      43633                 5         1  112108 train               4
    ##  6        1      13176                 6         0  112108 train               4
    ##  7        1      47209                 7         0  112108 train               4
    ##  8        1      22035                 8         1  112108 train               4
    ##  9       36      39612                 1         0   79431 train              23
    ## 10       36      19660                 2         1   79431 train              23
    ## # … with 1,384,607 more rows, and 8 more variables: order_dow <int>,
    ## #   order_hour_of_day <int>, days_since_prior_order <int>, product_name <chr>,
    ## #   aisle_id <int>, department_id <int>, aisle <chr>, department <chr>
…
    ## Warning: Expected 2 pieces. Additional pieces discarded in 500 rows [4211, 4212,
    ## 4213, 4214, 4215, 4216, 4217, 4218, 4219, 4220, 4221, 4222, 4223, 4224, 4225,
    ## 4226, 4227, 4228, 4229, 4230, ...].

``` r
brfss_df
```

    ## # A tibble: 10,625 × 23
    ##     year state location  class  topic  question  response sample_size data_value
    ##    <int> <chr> <chr>     <chr>  <chr>  <chr>     <fct>          <int>      <dbl>
    ##  1  2010 AL    " Jeffer… Healt… Overa… How is y… Poor              45        5.5
    ##  2  2010 AL    " Mobile… Healt… Overa… How is y… Poor              66        6.4
    ##  3  2010 AL    " Tuscal… Healt… Overa… How is y… Poor              35        4.2
    ##  4  2010 AZ    " Marico… Healt… Overa… How is y… Poor              62        3.5
    ##  5  2010 AZ    " Pima C… Healt… Overa… How is y… Poor              49        5.7
    ##  6  2010 AZ    " Pinal … Healt… Overa… How is y… Poor              30        4  
    ##  7  2010 AR    " Benton… Healt… Overa… How is y… Poor              21        3  
    ##  8  2010 AR    " Pulask… Healt… Overa… How is y… Poor              36        3.8
    ##  9  2010 AR    " Washin… Healt… Overa… How is y… Poor              16        2.4
    ## 10  2010 CA    " Alamed… Healt… Overa… How is y… Poor              23        2.4
    ## # … with 10,615 more rows, and 14 more variables: confidence_limit_low <dbl>,
    ## #   confidence_limit_high <dbl>, display_order <int>, data_value_unit <chr>,
    ## #   data_value_type <chr>, data_value_footnote_symbol <chr>,
    ## #   data_value_footnote <chr>, data_source <chr>, class_id <chr>,
    ## #   topic_id <chr>, location_id <chr>, question_id <chr>, respid <chr>,
    ## #   geo_location <chr>
…
``` r
excellent_df = 
  brfss_df %>% 
  filter(response == "Excellent") %>% 
  group_by(state, year) %>% 
  summarize(data_value_mean = mean(data_value, na.rm = TRUE))
```

    ## `summarise()` has grouped output by 'state'. You can override using the `.groups` argument.

``` r
excellent_df
```

    ## # A tibble: 443 × 3
    ## # Groups:   state [51]
    ##    state  year data_value_mean
    ##    <chr> <int>           <dbl>
    ##  1 AK     2002            27.9
    ##  2 AK     2003            24.8
    ##  3 AK     2004            23.0
    ##  4 AK     2005            23.8
    ##  5 AK     2007            23.5
    ##  6 AK     2008            20.6
    ##  7 AK     2009            23.2
    ##  8 AL     2002            18.5
    ##  9 AL     2003            19.5
    ## 10 AL     2004            20  
    ## # … with 433 more rows
…
